EESchema Schematic File Version 2
LIBS:power
LIBS:device
LIBS:transistors
LIBS:conn
LIBS:linear
LIBS:regul
LIBS:74xx
LIBS:cmos4000
LIBS:adc-dac
LIBS:memory
LIBS:xilinx
LIBS:microcontrollers
LIBS:dsp
LIBS:microchip
LIBS:analog_switches
LIBS:motorola
LIBS:texas
LIBS:intel
LIBS:audio
LIBS:interface
LIBS:digital-audio
LIBS:philips
LIBS:display
LIBS:cypress
LIBS:siliconi
LIBS:opto
LIBS:atmel
LIBS:contrib
LIBS:valves
LIBS:my-displays
LIBS:my-microcontrollers
LIBS:my-power-monitors
LIBS:USB-power-meter-cache
EELAYER 25 0
EELAYER END
$Descr A4 11693 8268
encoding utf-8
Sheet 1 1
Title ""
Date ""
Rev ""
Comp ""
Comment1 ""
Comment2 ""
Comment3 ""
Comment4 ""
$EndDescr
$Comp
L arduino_nano U1
U 1 1 5BD94FDE
P 4950 4900
F 0 "U1" H 5250 3850 70  0000 C CNN
F 1 "arduino_nano" H 5250 4100 70  0000 C CNN
F 2 "myMicroControllers:Arduino-nano" H 5250 4850 60  0001 C CNN
F 3 "" H 4950 4900 60  0000 C CNN
	1    4950 4900
	1    0    0    -1  
$EndComp
$Comp
L +5V #PWR01
U 1 1 5BD94FE5
P 4050 5550
F 0 "#PWR01" H 4050 5400 50  0001 C CNN
F 1 "+5V" H 4050 5690 50  0000 C CNN
F 2 "" H 4050 5550 50  0000 C CNN
F 3 "" H 4050 5550 50  0000 C CNN
	1    4050 5550
	1    0    0    -1  
$EndComp
$Comp
L GND #PWR02
U 1 1 5BD94FEB
P 6500 5850
F 0 "#PWR02" H 6500 5600 50  0001 C CNN
F 1 "GND" H 6500 5700 50  0000 C CNN
F 2 "" H 6500 5850 50  0000 C CNN
F 3 "" H 6500 5850 50  0000 C CNN
	1    6500 5850
	1    0    0    -1  
$EndComp
$Comp
L GND #PWR03
U 1 1 5BD94FF1
P 3650 6200
F 0 "#PWR03" H 3650 5950 50  0001 C CNN
F 1 "GND" H 3650 6050 50  0000 C CNN
F 2 "" H 3650 6200 50  0000 C CNN
F 3 "" H 3650 6200 50  0000 C CNN
	1    3650 6200
	1    0    0    -1  
$EndComp
$Comp
L C C1
U 1 1 5BD95003
P 3400 5950
F 0 "C1" H 3425 6050 50  0000 L CNN
F 1 "100nF" H 3200 5850 50  0000 L CNN
F 2 "Capacitors_ThroughHole:C_Rect_L7_W3.5_P5" H 3438 5800 50  0001 C CNN
F 3 "" H 3400 5950 50  0000 C CNN
	1    3400 5950
	1    0    0    -1  
$EndComp
$Comp
L GND #PWR04
U 1 1 5BD9500A
P 3400 6200
F 0 "#PWR04" H 3400 5950 50  0001 C CNN
F 1 "GND" H 3400 6050 50  0000 C CNN
F 2 "" H 3400 6200 50  0000 C CNN
F 3 "" H 3400 6200 50  0000 C CNN
	1    3400 6200
	1    0    0    -1  
$EndComp
Connection ~ 4050 5700
Wire Wire Line
	3400 5800 3400 5700
Wire Wire Line
	3400 6100 3400 6200
Wire Wire Line
	4250 5100 4000 5100
Wire Wire Line
	3900 5250 4250 5250
Wire Wire Line
	3650 6000 4250 6000
Wire Wire Line
	3650 6200 3650 6000
Wire Wire Line
	6500 5700 6300 5700
Wire Wire Line
	6500 5850 6500 5700
Wire Wire Line
	3400 5700 4250 5700
Wire Wire Line
	4050 5550 4050 5700
$Comp
L ina226-module U2
U 1 1 5BD96875
P 5250 2850
F 0 "U2" H 5300 3200 60  0000 C CNN
F 1 "ina226-module" H 5300 3500 60  0000 C CNN
F 2 "myModules:CJMCU-ina226" H 5250 2850 60  0001 C CNN
F 3 "" H 5250 2850 60  0000 C CNN
	1    5250 2850
	1    0    0    -1  
$EndComp
Wire Wire Line
	5200 3300 5200 3500
Wire Wire Line
	3900 3500 7100 3500
Wire Wire Line
	3900 3500 3900 5250
Wire Wire Line
	4000 5100 4000 3600
Wire Wire Line
	4000 3600 7100 3600
Wire Wire Line
	5400 3600 5400 3300
$Comp
L GND #PWR05
U 1 1 5BD96B69
P 4700 3000
F 0 "#PWR05" H 4700 2750 50  0001 C CNN
F 1 "GND" H 4700 2850 50  0000 C CNN
F 2 "" H 4700 3000 50  0000 C CNN
F 3 "" H 4700 3000 50  0000 C CNN
	1    4700 3000
	1    0    0    -1  
$EndComp
Wire Wire Line
	4700 3000 4700 2800
Wire Wire Line
	4700 2800 4850 2800
$Comp
L GND #PWR06
U 1 1 5BD96B9A
P 3500 2200
F 0 "#PWR06" H 3500 1950 50  0001 C CNN
F 1 "GND" H 3500 2050 50  0000 C CNN
F 2 "" H 3500 2200 50  0000 C CNN
F 3 "" H 3500 2200 50  0000 C CNN
	1    3500 2200
	1    0    0    -1  
$EndComp
$Comp
L +5V #PWR07
U 1 1 5BD96BCD
P 6000 2600
F 0 "#PWR07" H 6000 2450 50  0001 C CNN
F 1 "+5V" H 6000 2740 50  0000 C CNN
F 2 "" H 6000 2600 50  0000 C CNN
F 3 "" H 6000 2600 50  0000 C CNN
	1    6000 2600
	1    0    0    -1  
$EndComp
Wire Wire Line
	6000 2600 6000 2900
Wire Wire Line
	6000 2800 5750 2800
Wire Wire Line
	7500 1500 6000 1500
Wire Wire Line
	6000 1500 6000 2400
Wire Wire Line
	6000 2400 5750 2400
Wire Wire Line
	3300 1500 4600 1500
Wire Wire Line
	4600 1500 4600 2600
Wire Wire Line
	4600 2400 4850 2400
Wire Wire Line
	3300 1800 7500 1800
Wire Wire Line
	3300 1700 7500 1700
Wire Wire Line
	3300 1600 7500 1600
Wire Wire Line
	3500 2200 3500 1800
Connection ~ 3500 1800
$Comp
L ssd1306-I2C U3
U 1 1 5BD96F20
P 7700 3550
F 0 "U3" H 7825 3550 60  0000 C CNN
F 1 "ssd1306-I2C" H 7825 3700 60  0000 C CNN
F 2 "myDisplays:SSD1306-128x32-12C" H 7725 3550 60  0001 C CNN
F 3 "" H 7725 3550 60  0000 C CNN
	1    7700 3550
	1    0    0    -1  
$EndComp
Connection ~ 5400 3600
Connection ~ 5200 3500
Wire Wire Line
	6800 3200 6800 3900
Wire Wire Line
	6800 3400 7100 3400
$Comp
L GND #PWR08
U 1 1 5BD97008
P 7000 3700
F 0 "#PWR08" H 7000 3450 50  0001 C CNN
F 1 "GND" H 7000 3550 50  0000 C CNN
F 2 "" H 7000 3700 50  0000 C CNN
F 3 "" H 7000 3700 50  0000 C CNN
	1    7000 3700
	1    0    0    -1  
$EndComp
Wire Wire Line
	7100 3300 7000 3300
Wire Wire Line
	7000 3300 7000 3700
$Comp
L C C2
U 1 1 5BD97053
P 6000 3050
F 0 "C2" H 6025 3150 50  0000 L CNN
F 1 "100nF" H 5800 2950 50  0000 L CNN
F 2 "Capacitors_ThroughHole:C_Rect_L7_W3.5_P5" H 6038 2900 50  0001 C CNN
F 3 "" H 6000 3050 50  0000 C CNN
	1    6000 3050
	1    0    0    -1  
$EndComp
$Comp
L GND #PWR09
U 1 1 5BD970C0
P 6000 3300
F 0 "#PWR09" H 6000 3050 50  0001 C CNN
F 1 "GND" H 6000 3150 50  0000 C CNN
F 2 "" H 6000 3300 50  0000 C CNN
F 3 "" H 6000 3300 50  0000 C CNN
	1    6000 3300
	1    0    0    -1  
$EndComp
Wire Wire Line
	6000 3200 6000 3300
Connection ~ 6000 2800
$Comp
L +3.3V #PWR010
U 1 1 5BD9520D
P 6800 3200
F 0 "#PWR010" H 6800 3050 50  0001 C CNN
F 1 "+3.3V" H 6800 3340 50  0000 C CNN
F 2 "" H 6800 3200 50  0000 C CNN
F 3 "" H 6800 3200 50  0000 C CNN
	1    6800 3200
	1    0    0    -1  
$EndComp
$Comp
L +3.3V #PWR011
U 1 1 5BD95242
P 3700 4100
F 0 "#PWR011" H 3700 3950 50  0001 C CNN
F 1 "+3.3V" H 3700 4240 50  0000 C CNN
F 2 "" H 3700 4100 50  0000 C CNN
F 3 "" H 3700 4100 50  0000 C CNN
	1    3700 4100
	1    0    0    -1  
$EndComp
Wire Wire Line
	3700 4100 3700 4200
Wire Wire Line
	3700 4200 4250 4200
$Comp
L C C3
U 1 1 5BD95295
P 6800 4050
F 0 "C3" H 6825 4150 50  0000 L CNN
F 1 "100nF" H 6600 3950 50  0000 L CNN
F 2 "Capacitors_ThroughHole:C_Rect_L7_W3.5_P5" H 6838 3900 50  0001 C CNN
F 3 "" H 6800 4050 50  0000 C CNN
	1    6800 4050
	1    0    0    -1  
$EndComp
$Comp
L GND #PWR012
U 1 1 5BD95351
P 6800 4300
F 0 "#PWR012" H 6800 4050 50  0001 C CNN
F 1 "GND" H 6800 4150 50  0000 C CNN
F 2 "" H 6800 4300 50  0000 C CNN
F 3 "" H 6800 4300 50  0000 C CNN
	1    6800 4300
	1    0    0    -1  
$EndComp
Wire Wire Line
	6800 4300 6800 4200
Connection ~ 6800 3400
$Comp
L TEST_1P W1
U 1 1 5BD956F8
P 3900 2800
F 0 "W1" H 3900 3070 50  0000 C CNN
F 1 "TEST_GND" H 3900 3000 50  0000 C CNN
F 2 "Pin_Headers:Pin_Header_Straight_1x01" H 4100 2800 50  0001 C CNN
F 3 "" H 4100 2800 50  0000 C CNN
	1    3900 2800
	1    0    0    -1  
$EndComp
$Comp
L GND #PWR013
U 1 1 5BD9573A
P 3900 2900
F 0 "#PWR013" H 3900 2650 50  0001 C CNN
F 1 "GND" H 3900 2750 50  0000 C CNN
F 2 "" H 3900 2900 50  0000 C CNN
F 3 "" H 3900 2900 50  0000 C CNN
	1    3900 2900
	1    0    0    -1  
$EndComp
Wire Wire Line
	3900 2800 3900 2900
$Comp
L TEST_1P W2
U 1 1 5BD95855
P 4300 2800
F 0 "W2" H 4300 3070 50  0000 C CNN
F 1 "TEST_VCC" H 4300 3000 50  0000 C CNN
F 2 "Pin_Headers:Pin_Header_Straight_1x01" H 4500 2800 50  0001 C CNN
F 3 "" H 4500 2800 50  0000 C CNN
	1    4300 2800
	1    0    0    -1  
$EndComp
$Comp
L +5V #PWR014
U 1 1 5BD95897
P 4450 2900
F 0 "#PWR014" H 4450 2750 50  0001 C CNN
F 1 "+5V" H 4450 3040 50  0000 C CNN
F 2 "" H 4450 2900 50  0000 C CNN
F 3 "" H 4450 2900 50  0000 C CNN
	1    4450 2900
	1    0    0    -1  
$EndComp
Wire Wire Line
	4450 2900 4450 3000
Wire Wire Line
	4450 3000 4300 3000
Wire Wire Line
	4300 3000 4300 2800
Wire Wire Line
	4050 6150 4250 6150
Wire Wire Line
	4050 5950 4050 6150
$Comp
L +8V #PWR015
U 1 1 5BD94FFD
P 4050 5950
F 0 "#PWR015" H 4050 5800 50  0001 C CNN
F 1 "+8V" H 4050 6090 50  0000 C CNN
F 2 "" H 4050 5950 50  0000 C CNN
F 3 "" H 4050 5950 50  0000 C CNN
	1    4050 5950
	1    0    0    -1  
$EndComp
$Comp
L Battery BT2
U 1 1 5BD962A3
P 3200 5150
F 0 "BT2" H 3300 5200 50  0000 L CNN
F 1 "Battery" H 3300 5100 50  0000 L CNN
F 2 "myBatteries:18650" V 3200 5190 50  0001 C CNN
F 3 "" V 3200 5190 50  0000 C CNN
	1    3200 5150
	1    0    0    -1  
$EndComp
$Comp
L Battery BT1
U 1 1 5BD96303
P 3200 4750
F 0 "BT1" H 3300 4800 50  0000 L CNN
F 1 "Battery" H 3300 4700 50  0000 L CNN
F 2 "myBatteries:18650" V 3200 4790 50  0001 C CNN
F 3 "" V 3200 4790 50  0000 C CNN
	1    3200 4750
	1    0    0    -1  
$EndComp
Wire Wire Line
	3200 4900 3200 5000
$Comp
L GND #PWR016
U 1 1 5BD9637C
P 3200 5400
F 0 "#PWR016" H 3200 5150 50  0001 C CNN
F 1 "GND" H 3200 5250 50  0000 C CNN
F 2 "" H 3200 5400 50  0000 C CNN
F 3 "" H 3200 5400 50  0000 C CNN
	1    3200 5400
	1    0    0    -1  
$EndComp
Wire Wire Line
	3200 5300 3200 5400
$Comp
L +8V #PWR017
U 1 1 5BD963EC
P 3300 3400
F 0 "#PWR017" H 3300 3250 50  0001 C CNN
F 1 "+8V" H 3300 3540 50  0000 C CNN
F 2 "" H 3300 3400 50  0000 C CNN
F 3 "" H 3300 3400 50  0000 C CNN
	1    3300 3400
	1    0    0    -1  
$EndComp
Wire Wire Line
	3200 4500 3200 4600
$Comp
L SWITCH_INV SW1
U 1 1 5BD964F8
P 3200 4000
F 0 "SW1" H 3000 4150 50  0000 C CNN
F 1 "POWER" H 3050 3850 50  0000 C CNN
F 2 "mySwitches:SECME-CIRDJET" H 3200 4000 50  0001 C CNN
F 3 "" H 3200 4000 50  0000 C CNN
	1    3200 4000
	0    -1   -1   0   
$EndComp
Wire Wire Line
	3300 3400 3300 3500
$Comp
L USB_B P1
U 1 1 5BD96B1C
P 3000 1700
F 0 "P1" H 3200 1500 50  0000 C CNN
F 1 "USB_IN" H 2950 1900 50  0000 C CNN
F 2 "Connect:USB_B" V 2950 1600 50  0001 C CNN
F 3 "" V 2950 1600 50  0000 C CNN
	1    3000 1700
	0    -1   1    0   
$EndComp
$Comp
L USB_A P2
U 1 1 5BD96D49
P 7800 1700
F 0 "P2" H 8000 1500 50  0000 C CNN
F 1 "USB_OUT" H 7750 1900 50  0000 C CNN
F 2 "Connect:USB_A" V 7750 1600 50  0001 C CNN
F 3 "" V 7750 1600 50  0000 C CNN
	1    7800 1700
	0    1    1    0   
$EndComp
Wire Wire Line
	2900 2000 2900 2100
Wire Wire Line
	2900 2100 7900 2100
Wire Wire Line
	7900 2100 7900 2000
$Comp
L CONN_01X02 P3
U 1 1 5BD970A8
P 2600 4950
F 0 "P3" H 2600 5100 50  0000 C CNN
F 1 "7.5V" V 2700 4950 50  0000 C CNN
F 2 "myConnectors:LUNBERG-1613-21" H 2600 4950 50  0001 C CNN
F 3 "" H 2600 4950 50  0000 C CNN
	1    2600 4950
	-1   0    0    -1  
$EndComp
Wire Wire Line
	3200 4550 2900 4550
Wire Wire Line
	2900 4550 2900 4900
Wire Wire Line
	2900 4900 2800 4900
Connection ~ 3200 4550
Wire Wire Line
	2800 5000 2900 5000
Wire Wire Line
	2900 5000 2900 5350
Wire Wire Line
	2900 5350 3200 5350
Connection ~ 3200 5350
Text GLabel 5200 1400 1    60   Input ~ 0
D-
Text GLabel 5400 1400 1    60   Input ~ 0
D+
Wire Wire Line
	5200 1400 5200 1600
Connection ~ 5200 1600
Wire Wire Line
	5400 1400 5400 1700
Connection ~ 5400 1700
Wire Wire Line
	4600 2600 4850 2600
Connection ~ 4600 2400
$EndSCHEMATC
